<svg
          width="15"
          height="16"
          viewBox="0 0 15 16"
          fill="none"
          xmlns="http://www.w3.org/2000/svg"
        >
          <path
            d="M6.60887 1.08076L5.99043 4.57815C5.78803 5.71684 4.92221 6.59991 3.8315 6.80905L0.44692 7.44811C-0.149035 7.5643 -0.149035 8.44737 0.44692 8.55194L3.8315 9.191C4.93345 9.40015 5.78803 10.2948 5.99043 11.4219L6.60887 14.9193C6.72131 15.5351 7.57589 15.5351 7.67709 14.9193L8.29554 11.4219C8.49793 10.2832 9.36376 9.40015 10.4545 9.191L13.839 8.55194C14.435 8.43575 14.435 7.55268 13.839 7.44811L10.4545 6.80905C9.35251 6.59991 8.49793 5.70522 8.29554 4.57815L7.67709 1.08076C7.56465 0.464941 6.71007 0.464941 6.60887 1.08076Z"
            fill="url(#paint0_linear_3229_2940)"
          />
          <defs>
            <linearGradient
              id="paint0_linear_3229_2940"
              x1="-6.00013"
              y1="2"
              x2="-5.75481"
              y2="17.5101"
              gradientUnits="userSpaceOnUse"
            >
              <stop stop-color="#E1986D" />
              <stop offset="0.9999" stop-color="#7759C2" />
              <stop offset="1" stop-color="#6E43D3" />
            </linearGradient>
          </defs>
        </svg>