<svg width="331" height="233" viewBox="0 0 331 233" fill="none" xmlns="http://www.w3.org/2000/svg">
<path fill-rule="evenodd" clip-rule="evenodd" d="M267.209 9.00564H325.992C328.253 9.00564 330.043 7.12154 330.043 4.86064C330.043 2.59974 328.253 0.809937 325.992 0.809937H267.209V9.00564ZM261.839 40.8475H299.333C301.594 40.8475 303.478 39.0576 303.384 36.7025C303.384 34.4416 301.594 32.6517 299.333 32.6517H261.839V40.8475ZM325.993 40.8468H317.137C314.877 40.8468 313.087 39.0569 313.087 36.796C313.087 34.5351 314.877 32.7453 317.137 32.7453H325.993C328.254 32.7453 330.043 34.5351 330.043 36.796C330.043 39.0569 328.254 40.8468 325.993 40.8468ZM237.818 72.6872H269.847C272.108 72.6872 273.992 70.8974 273.898 68.5423C273.898 66.2814 272.108 64.4915 269.847 64.4915H241.586L237.818 72.6872ZM325.993 72.6869H287.84C285.579 72.6869 283.789 70.8971 283.789 68.6362C283.789 66.3753 285.579 64.5854 287.84 64.5854H325.993C328.253 64.5854 330.043 66.3753 330.043 68.6362C330.043 70.8971 328.253 72.6869 325.993 72.6869ZM204.752 136.464H273.238C275.499 136.464 277.383 134.675 277.289 132.319C277.289 130.059 275.499 128.269 273.238 128.269H204.752V136.464ZM325.993 136.464H291.231C288.97 136.464 287.181 134.674 287.181 132.413C287.181 130.152 288.97 128.363 291.231 128.363H325.993C328.254 128.363 330.043 130.152 330.043 132.413C330.043 134.674 328.254 136.464 325.993 136.464ZM185.44 200.24H250.158C252.419 200.24 254.209 198.356 254.209 196.095C254.209 193.834 252.419 192.044 250.158 192.044H185.44V200.24ZM246.767 232.081H182.049V223.886H246.767C249.028 223.886 250.818 225.676 250.818 227.936C250.818 230.292 249.028 232.081 246.767 232.081ZM268.057 200.239H291.514C293.775 200.239 295.659 198.355 295.565 196.189C295.565 193.928 293.775 192.138 291.514 192.138H268.057C265.796 192.138 264.006 193.928 264.006 196.189C264.006 198.45 265.796 200.239 268.057 200.239ZM216.339 168.304H193.824V160.108H216.339C218.6 160.108 220.39 161.898 220.39 164.159C220.39 166.514 218.6 168.304 216.339 168.304ZM263.253 104.622H301.311C303.572 104.622 305.362 102.738 305.362 100.572C305.362 98.3107 303.572 96.5208 301.311 96.5208H263.253C260.992 96.5208 259.202 98.3107 259.202 100.572C259.202 102.832 260.992 104.622 263.253 104.622ZM245.26 104.623H221.332V96.4271H245.26C247.521 96.4271 249.31 98.2169 249.31 100.478C249.31 102.739 247.521 104.623 245.26 104.623ZM319.21 104.622H325.993C328.253 104.622 330.043 102.738 330.043 100.572C330.043 98.3107 328.253 96.5208 325.993 96.5208H319.21C316.949 96.5208 315.159 98.3107 315.159 100.572C315.159 102.832 316.949 104.622 319.21 104.622ZM301.311 168.304H234.332C232.071 168.304 230.281 166.514 230.281 164.253C230.281 161.992 232.071 160.202 234.332 160.202H301.311C303.572 160.202 305.362 161.992 305.362 164.253C305.362 166.514 303.572 168.304 301.311 168.304ZM264.854 232.081H276.347C278.608 232.081 280.398 230.291 280.398 228.03C280.398 225.77 278.608 223.98 276.347 223.98H264.854C262.593 223.98 260.803 225.77 260.803 228.03C260.803 230.291 262.593 232.081 264.854 232.081Z" fill="url(#paint0_linear_186_2003)"/>
<path d="M0 34.1573V43.7661L41.3556 19.0847V231.986H49.7396V14.0918L58.3123 9.00478H86.2908V231.986H94.675V0.809082H55.8629L0 34.1573Z" fill="white"/>
<path d="M113.327 0.809082V9.00478H222.039C218.553 24.8311 215.727 33.4036 203.386 50.3604C170.132 95.9551 151.103 143.811 141.777 205.609C140.835 211.92 139.328 225.486 138.574 232.08H147.052C147.806 225.203 149.219 212.674 150.161 206.833C159.299 146.354 177.857 99.5349 210.357 55.0706C224.017 36.324 227.032 26.7151 230.8 9.00478H265.373C264.525 23.9832 259.249 38.2081 249.923 50.2662C234.945 69.7664 223.452 87.6652 214.785 104.999L210.546 113.477C195.096 144.282 185.299 177.159 181.248 211.261L178.799 232.174H187.277L189.633 212.203C193.495 179.043 203.104 147.108 218.082 117.057L222.321 108.578C230.8 91.716 242.01 74.2881 256.706 55.2589C267.916 40.6573 273.945 23.3238 273.945 5.04826V0.997444H113.327V0.809082Z" fill="white"/>
<defs>
<linearGradient id="paint0_linear_186_2003" x1="330.043" y1="128.472" x2="210.995" y2="116.446" gradientUnits="userSpaceOnUse">
<stop offset="0.295138" stop-color="#A989F5" stop-opacity="0.3"/>
<stop offset="0.934251" stop-color="#A989F5"/>
</linearGradient>
</defs>
</svg>
