<svg width="109" height="25" viewBox="0 0 109 25" fill="none" xmlns="http://www.w3.org/2000/svg">
<g id="Zillow_logo 1" clip-path="url(#clip0_783_9582)">
<g id="layer1">
<g id="g951">
<path id="path940" fill-rule="evenodd" clip-rule="evenodd" d="M13.7811 6.90892C13.8841 6.88192 13.9311 6.92092 13.9921 6.99292C14.3421 7.40892 15.47 8.85892 15.777 9.25592C15.7882 9.26997 15.7964 9.28616 15.8012 9.3035C15.8059 9.32084 15.807 9.33895 15.8045 9.35674C15.802 9.37453 15.7958 9.39161 15.7865 9.40695C15.7771 9.42228 15.7647 9.43554 15.75 9.44592C13.4761 11.3189 10.9461 13.9679 9.53612 15.8659C9.50612 15.9059 9.53112 15.9089 9.55112 15.8999C12.0071 14.7839 17.775 13.0029 20.377 12.5039V9.02992L10.2071 0.544922L0.0162354 9.02992V12.8269C3.1752 10.8459 10.4741 7.77892 13.7811 6.90892ZM61.0605 1.72592H65.5354V24.0579H61.0605V1.72592ZM57.7455 1.72592H53.2706V24.0589H57.7455V1.72592ZM87.4581 9.44592H83.0372L87.5141 24.0609H91.6311L92.7551 20.3659C93.2011 18.8979 93.9451 16.1569 93.9451 16.1569C93.9469 16.1495 93.9511 16.1429 93.9571 16.1382C93.963 16.1335 93.9704 16.1309 93.9781 16.1309C93.9931 16.1309 94.0061 16.1409 94.0111 16.1569C94.0111 16.1569 94.7561 18.9509 95.179 20.3909L96.282 24.0579H100.326L104.771 9.44492H100.662L99.38 13.8659C98.9887 15.2673 98.6083 16.6716 98.239 18.0789C98.2372 18.0863 98.233 18.0929 98.227 18.0976C98.221 18.1023 98.2136 18.1049 98.206 18.1049C98.1984 18.1049 98.191 18.1023 98.185 18.0976C98.179 18.0929 98.1748 18.0863 98.173 18.0789C98.173 18.0789 97.483 15.3809 97.036 13.8659L95.716 9.44592H92.4501L91.1061 13.8659C90.6851 15.2799 89.9461 18.0809 89.9461 18.0809C89.9438 18.0878 89.9393 18.0937 89.9334 18.0978C89.9274 18.102 89.9203 18.1041 89.9131 18.1039C89.9061 18.1039 89.8992 18.1017 89.8934 18.0975C89.8877 18.0934 89.8834 18.0876 89.8811 18.0809C89.8811 18.0809 89.1671 15.3309 88.7391 13.8659L87.4581 9.44592ZM67.7504 16.8019C67.7504 12.3619 71.1433 9.07292 75.2943 9.07292C79.4042 9.07292 82.7982 12.3629 82.7982 16.8019C82.7982 21.2549 79.4062 24.5449 75.2943 24.5449C71.1443 24.5449 67.7504 21.2549 67.7504 16.8049V16.8019ZM78.5043 16.8019C78.5043 14.6279 77.0343 13.1479 75.2943 13.1479C73.5133 13.1479 72.0443 14.6279 72.0443 16.8019C72.0443 18.9909 73.5133 20.4559 75.2943 20.4559C77.0343 20.4559 78.5043 18.9909 78.5043 16.8019ZM27.3849 3.79192V8.09792H35.2938C35.3258 8.09792 35.3378 8.12992 35.3218 8.15792L27.3819 22.3999L27.3679 22.4259C27.1879 22.7739 27.1449 22.8579 27.1449 23.2189V24.0589H42.5507V19.7609H33.9928C33.986 19.7609 33.9794 19.7589 33.9737 19.7552C33.968 19.7515 33.9635 19.7462 33.9608 19.7399C33.9578 19.7335 33.9566 19.7264 33.9573 19.7194C33.958 19.7123 33.9606 19.7056 33.9648 19.6999L41.9967 5.27092L42.0187 5.22492C42.0747 5.10492 42.1287 4.99292 42.1287 4.69292L42.1307 3.79292L27.3849 3.79192ZM47.6376 2.12592C49.0326 2.12592 50.1856 3.31392 50.1856 4.77692C50.1856 6.24092 49.0326 7.43092 47.6376 7.43092C46.2427 7.43092 45.0907 6.24292 45.0907 4.77892C45.0907 3.31492 46.2427 2.12692 47.6376 2.12692V2.12592ZM45.4007 9.44592H49.8746V24.0589H45.4007V9.44592ZM5.28717 21.4669C5.34217 21.5349 5.43717 21.5489 5.50717 21.5009C9.28512 19.4469 17.596 16.8399 20.377 16.3409V24.1469H0.0172353V16.0369C2.11021 14.7869 7.76414 12.2229 9.75411 11.5369C9.79411 11.5229 9.80311 11.5469 9.76911 11.5739C7.85914 13.0709 4.86517 16.6039 3.39819 18.8749C3.33119 18.9809 3.33519 19.0149 3.38819 19.0799L5.28717 21.4669ZM107.091 6.64892C107.478 6.64892 107.754 6.94292 107.754 7.36292C107.754 7.68092 107.591 7.93192 107.343 8.03092L107.724 8.69092H107.362L107.008 8.07692H106.696V8.68892H106.378V6.64892H107.091ZM106.696 7.77692H107.071C107.282 7.77692 107.437 7.60492 107.437 7.36592C107.437 7.12592 107.282 6.95092 107.072 6.95092H106.696V7.77692ZM106.995 5.94092C106.319 5.94092 105.71 6.37092 105.452 7.02892C105.325 7.35065 105.291 7.70177 105.355 8.04171C105.42 8.38164 105.578 8.69651 105.814 8.94992C106.04 9.19453 106.337 9.36271 106.663 9.43115C106.989 9.49959 107.328 9.46492 107.634 9.33192C108.258 9.05892 108.665 8.41592 108.665 7.70292C108.664 6.72992 107.917 5.94192 106.995 5.94092ZM106.995 9.12692C106.449 9.12692 105.957 8.77992 105.748 8.24792C105.645 7.98801 105.618 7.70439 105.67 7.42979C105.722 7.15518 105.85 6.90078 106.04 6.69592C106.426 6.28792 107.007 6.16592 107.511 6.38692C108.015 6.60692 108.344 7.12692 108.344 7.70292C108.343 8.48892 107.74 9.12592 106.995 9.12692Z" fill="#171321"/>
</g>
</g>
</g>
<defs>
<clipPath id="clip0_783_9582">
<rect width="108.649" height="24" fill="white" transform="translate(0.0162354 0.544922)"/>
</clipPath>
</defs>
</svg>
